{
	"css": "ScenarioStructured4/s1.css",
	"src": "http://www.hc-sc.gc.ca/ewh-semt/air/out-ext/health-sante/index-eng.php",
	"0": {
		"title": "a heading style",
		"l": {"title": "Using a p tag", "file": "1p1l", "choice": "bad"},
		"r": {"title": "Using a h tag", "file": "1p1r", "choice": "good"}
	},
	"1": {
		"title": "a text style",
		"l": {"title": "Using a p tag", "file": "1p2l", "choice": "good"},
		"r": {"title": "Using a div tag", "file": "1p2r", "choice": "bad"}
	},
	"2": {
		"title": "a image structure",
		"l": {"title": "Using a undeffined", "file": "1p3l", "choice": "bad"},
		"r": {"title": "Using a undeffined", "file": "1p3r", "choice": "good"}
	},
	"3": {
		"title": "a heading style",
		"l": {"title": "Using a p tag", "file": "2p1l", "choice": "bad"},
		"r": {"title": "Using a h tag", "file": "2p1r", "choice": "good"}
	},
	"4": {
		"title": "a list style",
		"l": {"title": "Using a ul tag", "file": "2p2l", "choice": "good"},
		"r": {"title": "Using a br tag", "file": "2p2r", "choice": "bad"}
	},
	"5": {
		"title": "a second list style",
		"l": {"title": "Using div tag", "file": "2p3l", "choice": "bad"},
		"r": {"title": "Using dl tag", "file": "2p3r", "choice": "good"}
	},
	"6": {
		"title": "a heading style",
		"l": {"title": "Using a p tag", "file": "3p1l", "choice": "bad"},
		"r": {"title": "Using a h tag", "file": "3p1r", "choice": "good"}
	},
	"7": {
		"title": "a table style",
		"l": {"title": "Using a table tag", "file": "3p2l", "choice": "good"},
		"r": {"title": "Using a span tag", "file": "3p2r", "choice": "bad"}
	},
	"8": {
		"title": "a chart style",
		"l": {"title": "Using div tag", "file": "3p3l", "choice": "bad"},
		"r": {"title": "Using dl tag", "file": "3p3r", "choice": "good"}
	}	
}