{
	"src": "http://travel.gc.ca/destinations/united-states",
	"0": {
		"title": "a heading style",
		"l": {"title": "Using a p tag", "file": "p1l", "choice": "bad"},
		"r": {"title": "Using a h tag", "file": "p1r", "choice": "good"}
	},
	"1": {
		"title": "a list style",
		"l": {"title": "Using a ul tag", "file": "p2l", "choice": "good"},
		"r": {"title": "Using a br tag", "file": "p2r", "choice": "bad"}
	},
	"2": {
		"title": "a second list style",
		"l": {"title": "Using div tag", "file": "p3l", "choice": "bad"},
		"r": {"title": "Using dl tag", "file": "p3r", "choice": "good"}
	}	
}